<?xml version="1.0" encoding="UTF-8"?>
<svg width="226px" height="97px" viewBox="0 0 226 97" version="1.1" xmlns="http://www.w3.org/2000/svg" xmlns:xlink="http://www.w3.org/1999/xlink">
    <!-- Generator: Sketch 63.1 (92452) - https://sketch.com -->
    <title>Ed_Numérique_Logo_Monochrome_Green Copy</title>
    <desc>Created with Sketch.</desc>
    <g id="Page-1" stroke="none" stroke-width="1" fill="none" fill-rule="evenodd">
        <g id="charte-graphique-EDNUM-07-Copy" transform="translate(-501.000000, -67.000000)" fill="#258989" fill-rule="nonzero">
            <g id="Ed_Numérique_Logo_Monochrome_Green-Copy" transform="translate(501.000000, 67.000000)">
                <g id="Group-3" transform="translate(85.000000, 0.000000)">
                    <path d="M23.6165677,27.9890015 C22.569124,27.9983803 21.5275733,27.8313806 20.5355676,27.4950015 C20.5216976,27.6637169 20.5216976,27.8332861 20.5355676,28.0020015 C20.5355676,29.72513 21.9324392,31.1220016 23.6555677,31.1220016 C25.3786962,31.1220016 26.7755678,29.72513 26.7755679,28.0020015 C26.7894379,27.8332861 26.7894379,27.6637169 26.7755679,27.4950015 C25.7585103,27.8388812 24.6900535,28.005965 23.6165677,27.9890015 L23.6165677,27.9890015 Z" id="Path"></path>
                    <path d="M23.6165677,-2.86348738e-13 C11.5165078,0.107234871 1.79261242,9.99988727 1.89356653,22.1000012 C1.89325161,25.3415983 2.59858055,28.5444127 3.96056664,31.4860017 C6.99776304,36.6399003 12.2581343,40.0891666 18.1955674,40.8200022 L18.1955674,40.8200022 C19.0344289,40.9269724 19.7688606,41.4352304 20.1645319,42.1826094 C20.5602031,42.9299885 20.5676765,43.8231068 20.1845675,44.5770025 C19.2905017,46.3136626 18.1858446,47.9335352 16.8955674,49.4000027 C19.5175902,51.2435009 22.7771226,51.9401173 25.9236411,51.3294524 C29.0701595,50.7187875 31.8324813,48.8534714 33.5745683,46.1630025 L41.0495687,35.4120019 L41.0495687,35.4120019 C43.8674407,31.5489254 45.3670538,26.8814366 45.3265689,22.1000012 C45.4275468,10.0049169 35.7115328,0.114363838 23.6165677,-2.86348738e-13 Z M10.265567,30.9010017 C7.16519128,29.7763893 5.12603357,26.8013105 5.19556671,23.5040013 C5.32942059,20.2928601 7.48403542,17.5195329 10.5624218,16.596017 C13.6408082,15.672501 16.9662172,16.8018211 18.8455675,19.4090011 C19.8367611,21.1245325 21.6369549,22.2134781 23.6165677,22.2950012 L23.6165677,22.2950012 C25.5936859,22.2163963 27.3912665,21.1260606 28.374568,19.4090011 C30.2588766,16.8069352 33.5830058,15.6816096 36.6604447,16.6039628 C39.7378837,17.5263161 41.895079,20.2944745 42.0375687,23.5040013 C42.1071019,26.8013105 40.0679442,29.7763893 36.9675685,30.9010017 L30.3505681,33.5010018 C28.231568,34.3330019 25.9175678,35.529002 23.6035677,35.529002 C21.2895676,35.529002 18.9755675,34.3330019 16.8695674,33.5010018 L10.265567,30.9010017 Z" id="Shape"></path>
                    <circle id="Oval" cx="12.7875671" cy="23.8810013" r="3.17200017"></circle>
                    <circle id="Oval" cx="34.4715683" cy="23.8810013" r="3.17200017"></circle>
                    <path d="M35.6285684,47.6320026 C44.8922323,47.4651191 53.0304709,41.4410477 55.8955695,32.6300018 C55.9333747,32.514246 55.9129396,32.3873577 55.840704,32.2893237 C55.7684684,32.1912897 55.6533288,32.1341837 55.5315695,32.1359596 L45.8335689,32.1359596 C45.1031345,33.7927745 44.1965853,35.3661603 43.1295688,36.829002 L35.6285684,47.6320026 Z" id="Path"></path>
                    <path d="M13.0995671,49.4650027 C14.9087182,47.8669646 16.4378174,45.9775604 17.6235674,43.8750024 C17.6853206,43.7649129 17.6878807,43.6312233 17.6303875,43.5188502 C17.5728943,43.4064772 17.4629778,43.3303338 17.3375674,43.3160024 C10.5680788,42.3164115 4.66376065,38.1891679 1.3995665,32.1750018 L1.3995665,32.1750018 C-0.670690347,36.0360243 -0.429550753,40.7265613 2.02573407,44.3549267 C4.4810189,47.983292 8.74559555,49.9512024 13.0995671,49.4650027 L13.0995671,49.4650027 Z" id="Path"></path>
                </g>
                <g id="Group-4" transform="translate(0.000000, 62.000000)">
                    <path d="M0.0140714273,8.74611364 C-0.0359063921,7.79723271 0.320634301,6.87198055 0.994430534,6.20200186 C1.66822677,5.53202317 2.59548977,5.1807453 3.54407143,5.23611364 L16.0140714,5.23611364 C16.2158874,5.57826941 16.3737972,5.94448574 16.4840714,6.32611364 C16.7940714,7.32611364 16.9140714,8.98611364 16.0640714,9.80611364 C15.6204785,10.2187533 15.0292226,10.4350665 14.4240714,10.4061136 L6.42407143,10.4061136 L6.42407143,13.9261136 L15.0140714,13.9261136 C16.0140714,15.6361136 16.0940714,19.0661136 13.4140714,19.0661136 L6.41407143,19.0661136 L6.41407143,23.0661136 L16.1340714,23.0661136 C16.3357128,23.4118888 16.4935899,23.7813884 16.6040714,24.1661136 C16.9140714,25.1661136 17.0240714,26.8261136 16.1840714,27.6561136 C15.7492856,28.0857912 15.1547046,28.3141973 14.5440714,28.2861136 L3.54407143,28.2861136 C2.5809201,28.3703569 1.63006221,28.0227393 0.94834514,27.3371598 C0.266628068,26.6515803 -0.0756119958,25.6987736 0.0140714273,24.7361136 L0.0140714273,8.74611364 Z" id="Path"></path>
                    <path d="M18.1340714,18.9561136 C17.971208,15.9763449 19.2150184,13.0926296 21.4940714,11.1661136 C23.8340714,9.35611364 27.8440714,8.48611364 30.6440714,9.65611364 L30.6440714,3.52611364 C32.5640714,2.95611364 36.3240714,2.52611364 36.9640714,5.03611364 C37.091119,5.78232266 37.1280503,6.54109359 37.0740714,7.29611364 L37.0740714,23.2261136 C37.1629454,24.0461164 37.0425293,24.875267 36.7240714,25.6361136 C35.6440714,27.6361136 32.4540714,28.4661136 30.3640714,28.6961136 C27.297574,29.1766946 24.1625933,28.4839996 21.5840714,26.7561136 C19.265994,24.8474593 17.9867417,21.9552366 18.1340714,18.9561136 Z M28.8740714,14.2261136 C25.4740714,14.2261136 24.2940714,17.1261136 24.7140714,20.1261136 C24.809778,21.4452443 25.5609579,22.6283525 26.7140714,23.2761136 C27.9955707,23.9346602 29.5368166,23.826773 30.7140714,22.9961136 L30.7140714,14.6861136 C30.1572098,14.3603154 29.5187368,14.2006972 28.8740714,14.2261136 Z" id="Shape"></path>
                    <path d="M58.7740714,16.4961136 C58.7740714,14.2761136 56.5840714,13.9661136 54.7740714,14.4161136 C54.3199805,14.5284134 53.8897958,14.7214884 53.5040714,14.9861136 L53.5040714,28.0961136 C53.1144342,28.2054997 52.7164073,28.2824293 52.3140714,28.3261136 C51.2604879,28.4910555 50.187655,28.4910555 49.1340714,28.3261136 C48.7333866,28.2671206 48.3527199,28.1127963 48.0240714,27.8761136 C47.7118254,27.6342354 47.4701076,27.313096 47.3240714,26.9461136 C47.1434794,26.4568419 47.0586067,25.9374208 47.0740714,25.4161136 L47.0740714,14.0761136 C47.0497803,13.491048 47.2031744,12.9123342 47.5140714,12.4161136 C47.8355639,11.9563799 48.2389551,11.5597684 48.7040714,11.2461136 C49.7156494,10.5689279 50.8348995,10.0684777 52.0140714,9.76611364 C55.3840714,8.76611364 60.0140714,8.76611364 62.9240714,11.0761136 C64.4682852,12.3450928 65.3212162,14.2697502 65.2240714,16.2661136 L65.2240714,28.0961136 C64.8344342,28.2054997 64.4364073,28.2824293 64.0340714,28.3261136 C62.9838489,28.4911509 61.9142939,28.4911509 60.8640714,28.3261136 C60.0453235,28.2292161 59.3402837,27.7032945 59.0140714,26.9461136 C58.8373627,26.4560522 58.7559026,25.9367441 58.7740714,25.4161136 L58.7740714,16.4961136 Z" id="Path"></path>
                    <path d="M68.4140714,10.0361136 C68.8046269,9.93065271 69.2023461,9.85378262 69.6040714,9.80611364 C70.6542939,9.64107636 71.7238489,9.64107636 72.7740714,9.80611364 C73.176123,9.8713206 73.5586698,10.0250224 73.8940714,10.2561136 C74.2036113,10.5006481 74.444734,10.8209968 74.5940714,11.1861136 C74.7707802,11.676175 74.8522403,12.1954832 74.8340714,12.7161136 L74.8340714,20.8461136 C74.7518014,21.658501 75.0295462,22.4661536 75.5940714,23.0561136 C76.6559573,23.7695879 77.9860969,23.9575024 79.2040714,23.5661136 C79.4958592,23.491909 79.7803482,23.3915011 80.0540714,23.2661136 L80.0540714,10.0361136 C80.4448576,9.93165277 80.8425047,9.85479661 81.2440714,9.80611364 C82.5140714,9.62611364 84.4340714,9.43611364 85.5340714,10.2561136 C85.8436113,10.5006481 86.084734,10.8209968 86.2340714,11.1861136 C86.4107802,11.676175 86.4922403,12.1954832 86.4740714,12.7161136 L86.4740714,24.2061136 C86.5232673,25.3745518 85.9128191,26.4718131 84.8940714,27.0461136 C81.8240714,28.9661136 77.4140714,29.1961136 73.9840714,28.2861136 C72.8997489,28.0269434 71.8792047,27.5506894 70.9840714,26.8861136 C70.1497356,26.2506363 69.489331,25.4148117 69.0640714,24.4561136 C68.5794413,23.315984 68.3474583,22.0844276 68.3840714,20.8461136 L68.4140714,10.0361136 Z" id="Path"></path>
                    <path d="M98.4640714,9.19611364 C99.4797367,9.20164073 100.489595,9.3497533 101.464071,9.63611364 C102.403617,9.89718675 103.283326,10.3387393 104.054071,10.9361136 C106.642456,9.21465497 109.856475,8.71737786 112.844071,9.57611364 C113.73006,9.81047331 114.562121,10.2146172 115.294071,10.7661136 C116.033206,11.3368709 116.623318,12.077942 117.014071,12.9261136 C117.474319,13.9532262 117.69652,15.0710645 117.664071,16.1961136 L117.664071,28.0961136 C117.27419,28.204463 116.876248,28.2813761 116.474071,28.3261136 C115.420488,28.4910555 114.347655,28.4910555 113.294071,28.3261136 C112.48786,28.2216912 111.798237,27.6959007 111.484071,26.9461136 C111.298662,26.4581244 111.213631,25.9377385 111.234071,25.4161136 L111.234071,16.4161136 C111.28893,15.7965153 111.052382,15.1866649 110.594071,14.7661136 C109.741943,14.1919619 108.65525,14.0938577 107.714071,14.5061136 C107.38722,14.6236275 107.082844,14.7961077 106.814071,15.0161136 C106.834317,15.1922003 106.834317,15.370027 106.814071,15.5461136 L106.814071,28.0961136 C106.410005,28.2016733 105.99898,28.2785316 105.584071,28.3261136 C104.543935,28.4914656 103.484208,28.4914656 102.444071,28.3261136 C101.63786,28.2216912 100.948237,27.6959007 100.634071,26.9461136 C100.448662,26.4581244 100.363631,25.9377385 100.384071,25.4161136 L100.384071,16.4161136 C100.441114,15.7836973 100.178462,15.1645886 99.6840714,14.7661136 C98.8463321,14.1895035 97.7735106,14.076575 96.8340714,14.4661136 C96.5469381,14.5839196 96.2665131,14.7174553 95.9940714,14.8661136 L95.9940714,28.0961136 C95.6046743,28.2065115 95.2065615,28.2834577 94.8040714,28.3261136 C93.7538489,28.4911509 92.6842939,28.4911509 91.6340714,28.3261136 C91.2308032,28.2653265 90.8472935,28.1112377 90.5140714,27.8761136 C90.2045316,27.6315792 89.9634089,27.3112305 89.8140714,26.9461136 C89.6373627,26.4560522 89.5559026,25.9367441 89.5740714,25.4161136 L89.5740714,14.0061136 C89.5411695,13.4309533 89.6917365,12.8601993 90.0040714,12.3761136 C90.3357967,11.9364789 90.7378777,11.554671 91.1940714,11.2461136 C93.3515436,9.83716311 95.888356,9.12183086 98.4640714,9.19611364 Z" id="Path"></path>
                    <path d="M130.594071,28.7461136 C129.18923,28.7592971 127.791401,28.546584 126.454071,28.1161136 C125.226773,27.7295955 124.09292,27.0928671 123.124071,26.2461136 C122.15344,25.3810224 121.391081,24.3075663 120.894071,23.1061136 C119.744502,20.3165729 119.744502,17.1856544 120.894071,14.3961136 C121.378012,13.2508547 122.108719,12.2264991 123.034071,11.3961136 C127.284071,7.68611364 135.424071,8.50611364 137.864071,13.9561136 C138.504071,15.3661136 139.114071,17.8961136 137.864071,19.1261136 C137.306328,19.6205458 136.606034,19.9251736 135.864071,19.9961136 L126.534071,21.3961136 C126.808274,22.233275 127.426754,22.9136027 128.234071,23.2661136 C130.900016,24.3240354 133.908514,24.0646822 136.354071,22.5661136 C136.765917,22.8361387 137.108475,23.1992499 137.354071,23.6261136 C137.776169,24.30117 137.889761,25.1243984 137.66625,25.8885384 C137.442739,26.6526785 136.903419,27.2849299 136.184071,27.6261136 C135.334635,28.0714584 134.414283,28.3658358 133.464071,28.4961136 C132.51495,28.6506822 131.555623,28.7342474 130.594071,28.7461136 Z M130.214071,0.0161136395 C131.222183,-0.0705832213 132.229219,0.194426127 133.064071,0.76611364 C134.088528,1.63839285 134.247014,3.16161952 133.424071,4.22611364 C132.93945,4.77684296 132.347319,5.22264338 131.684071,5.53611364 L126.814071,8.10611364 C126.083324,8.04072093 125.399452,7.71827374 124.884071,7.19611364 C124.159317,6.55650576 123.929156,5.52279642 124.314071,4.63611364 C124.493366,4.29978903 124.754804,4.01427038 125.074071,3.80611364 L130.214071,0.0161136395 Z M129.534071,13.8861136 C128.995285,13.8724357 128.459855,13.9747472 127.964071,14.1861136 C126.807329,14.7463226 126.056429,15.9015544 126.014071,17.1861136 L132.484071,16.1261136 C132.364615,15.5488944 132.071511,15.0220047 131.644071,14.6161136 C131.07627,14.0842616 130.309146,13.8188585 129.534071,13.8861136 L129.534071,13.8861136 Z" id="Shape"></path>
                    <path d="M147.334071,28.0961136 C146.944434,28.2054997 146.546407,28.2824293 146.144071,28.3261136 C145.090488,28.4910555 144.017655,28.4910555 142.964071,28.3261136 C142.563387,28.2671206 142.18272,28.1127963 141.854071,27.8761136 C141.541825,27.6342354 141.300108,27.313096 141.154071,26.9461136 C140.973479,26.4568419 140.888607,25.9374208 140.904071,25.4161136 L140.904071,14.0761136 C140.889034,13.5597873 141.002426,13.0478054 141.234071,12.5861136 C141.458479,12.1521814 141.771984,11.7705235 142.154071,11.4661136 C142.615012,11.108072 143.118923,10.8090851 143.654071,10.5761136 C144.271863,10.3053835 144.906522,10.0749022 145.554071,9.88611364 C146.24904,9.67824146 146.957341,9.51787148 147.674071,9.40611364 C149.294071,9.15611364 151.304071,8.98611364 152.744071,9.93611364 C154.184071,10.8861136 153.984071,12.9361136 153.264071,14.1861136 C152.173302,14.1849429 151.084951,14.2887548 150.014071,14.4961136 C149.494071,14.5961136 149.014071,14.6961136 148.524071,14.8161136 C148.113887,14.905224 147.7148,15.0393707 147.334071,15.2161136 L147.334071,28.0961136 Z" id="Path"></path>
                    <path d="M162.264071,28.0961136 L161.034071,28.3061136 C159.99807,28.4810382 158.940073,28.4810382 157.904071,28.3061136 C156.404071,28.0561136 155.844071,26.7961136 155.844071,25.3961136 L155.844071,10.0361136 L157.064071,9.82611364 C158.334071,9.61611364 160.224071,9.43611364 161.324071,10.2561136 C161.633611,10.5006481 161.874734,10.8209968 162.024071,11.1861136 C162.20078,11.676175 162.28224,12.1954832 162.264071,12.7161136 L162.264071,28.0961136 Z" id="Path"></path>
                    <path d="M174.284071,28.7461136 C173.013613,28.7541638 171.750353,28.5548793 170.544071,28.1561136 C169.426312,27.7835918 168.402743,27.1728622 167.544071,26.3661136 C166.665381,25.5249561 165.982567,24.5007346 165.544071,23.3661136 C164.503688,20.6351779 164.503688,17.6170494 165.544071,14.8861136 C166.014754,13.704757 166.746306,12.6450325 167.684071,11.7861136 C168.639637,10.9047803 169.776099,10.2426974 171.014071,9.84611364 C173.709042,8.98104642 176.602927,8.95315355 179.314071,9.76611364 C180.313509,10.0419978 181.267015,10.4631577 182.144071,11.0161136 C182.620617,11.3355604 183.02859,11.7469335 183.344071,12.2261136 C183.644402,12.7410753 183.793438,13.3302874 183.774071,13.9261136 L183.774071,34.4861136 C183.376473,34.595129 182.972317,34.6786324 182.564071,34.7361136 C180.984071,34.9861136 178.294071,35.2261136 177.564071,33.3761136 C177.395958,32.8841099 177.318042,32.365799 177.334071,31.8461136 L177.334071,28.2561136 C176.874463,28.4378735 176.394158,28.5621484 175.904071,28.6261136 C175.36782,28.7064636 174.826309,28.7465755 174.284071,28.7461136 L174.284071,28.7461136 Z M177.384071,14.6361136 C177.129188,14.5256156 176.86476,14.4385886 176.594071,14.3761136 C174.613288,13.7787102 172.497205,14.7467968 171.654071,16.6361136 C171.024071,18.3561136 171.004071,21.1561136 172.354071,22.5661136 C173.722129,23.8191165 175.742715,24.0454222 177.354071,23.1261136 L177.384071,14.6361136 Z" id="Shape"></path>
                    <circle id="Oval" cx="159.054071" cy="4.66611364" r="3.52"></circle>
                    <path d="M187.014071,10.0361136 C187.404858,9.93165277 187.802505,9.85479661 188.204071,9.80611364 C189.257655,9.64117179 190.330488,9.64117179 191.384071,9.80611364 C191.783565,9.8694358 192.163263,10.0233672 192.494071,10.2561136 C192.806317,10.4979919 193.048035,10.8191313 193.194071,11.1861136 C193.374663,11.6753854 193.459536,12.1948065 193.444071,12.7161136 L193.444071,20.8461136 C193.363213,21.6565199 193.636671,22.4623112 194.194071,23.0561136 C195.255957,23.7695879 196.586097,23.9575024 197.804071,23.5661136 C198.096344,23.4935178 198.380981,23.3930578 198.654071,23.2661136 L198.654071,10.0361136 C199.044858,9.93165277 199.442505,9.85479661 199.844071,9.80611364 C201.124071,9.62611364 203.034071,9.43611364 204.134071,10.2561136 C204.449226,10.4951083 204.691611,10.8171338 204.834071,11.1861136 C205.019481,11.6741029 205.104512,12.1944887 205.084071,12.7161136 L205.084071,24.2061136 C205.133635,25.3772537 204.518384,26.4761928 203.494071,27.0461136 C200.434071,28.9661136 196.024071,29.1961136 192.594071,28.2861136 C191.50901,28.0290664 190.488052,27.5526198 189.594071,26.8861136 C188.756684,26.2512445 188.09289,25.415484 187.664071,24.4561136 C187.184224,23.3145409 186.952438,22.0840318 186.984071,20.8461136 L187.014071,10.0361136 Z" id="Path"></path>
                    <path d="M218.014071,28.7461136 C216.60923,28.7592971 215.211401,28.546584 213.874071,28.1161136 C212.647691,27.7274768 211.514251,27.0909806 210.544071,26.2461136 C209.576256,25.3785055 208.814385,24.3057372 208.314071,23.1061136 C207.164502,20.3165729 207.164502,17.1856544 208.314071,14.3961136 C208.805278,13.2549321 209.53494,12.2320421 210.454071,11.3961136 C214.704071,7.68611364 222.844071,8.50611364 225.294071,13.9561136 C225.924071,15.3661136 226.534071,17.8961136 225.234071,19.1261136 C224.676328,19.6205458 223.976034,19.9251736 223.234071,19.9961136 L213.894071,21.3961136 C214.171621,22.2313218 214.789016,22.9104565 215.594071,23.2661136 C218.263372,24.3241924 221.274919,24.0648957 223.724071,22.5661136 C224.131362,22.8415362 224.472821,23.2034834 224.724071,23.6261136 C225.139691,24.3027307 225.249632,25.1236088 225.026707,25.885747 C224.803781,26.6478852 224.268803,27.2801244 223.554071,27.6261136 C222.700536,28.0701378 221.777137,28.3644077 220.824071,28.4961136 C219.894789,28.6481332 218.955596,28.7316913 218.014071,28.7461136 Z M216.954071,13.8861136 C216.415362,13.8733656 215.880127,13.9756398 215.384071,14.1861136 C214.232749,14.7508237 213.486727,15.9044662 213.444071,17.1861136 L219.904071,16.1261136 C219.768287,15.5494984 219.457402,15.0290269 219.014071,14.6361136 C218.451825,14.1066607 217.694672,13.8349551 216.924071,13.8861136 L216.954071,13.8861136 Z" id="Shape"></path>
                </g>
            </g>
        </g>
    </g>
</svg>